03-dplyr
…
── Attaching core tidyverse packages ──────────────────────── tidyverse 2.0.0 ──
✔ dplyr     1.1.4     ✔ readr     2.1.5
✔ forcats   1.0.0     ✔ stringr   1.5.1
✔ ggplot2   3.5.1     ✔ tibble    3.2.1
✔ lubridate 1.9.3     ✔ tidyr     1.3.1
✔ purrr     1.0.2     
── Conflicts ────────────────────────────────────────── tidyverse_conflicts() ──
✖ dplyr::filter() masks stats::filter()
✖ dplyr::lag()    masks stats::lag()
ℹ Use the conflicted package (<http://conflicted.r-lib.org/>) to force all conflicts to become errors

babynames |> filter(name == "Matthew")

# A tibble: 212 × 5
    year sex   name        n     prop
   <dbl> <chr> <chr>   <int>    <dbl>
 1  1880 M     Matthew   113 0.000954
 2  1881 M     Matthew    80 0.000739
 3  1882 M     Matthew   109 0.000893
 4  1883 M     Matthew    86 0.000765
 5  1884 M     Matthew   117 0.000953
 6  1885 M     Matthew   111 0.000957
 7  1886 M     Matthew   112 0.000941
 8  1887 M     Matthew   108 0.000988
 9  1888 M     Matthew   114 0.000878
10  1889 M     Matthew   118 0.000991
# ℹ 202 more rows

babynames |> filter(year >= 2000)

# A tibble: 591,925 × 5
    year sex   name          n    prop
   <dbl> <chr> <chr>     <int>   <dbl>
 1  2000 F     Emily     25953 0.0130 
 2  2000 F     Hannah    23080 0.0116 
 3  2000 F     Madison   19967 0.0100 
 4  2000 F     Ashley    17997 0.00902
 5  2000 F     Sarah     17697 0.00887
 6  2000 F     Alexis    17629 0.00884
 7  2000 F     Samantha  17266 0.00866
 8  2000 F     Jessica   15709 0.00787
 9  2000 F     Elizabeth 15094 0.00757
10  2000 F     Taylor    15078 0.00756
# ℹ 591,915 more rows

babynames |> filter(sex != "M")

# A tibble: 1,138,293 × 5
    year sex   name          n   prop
   <dbl> <chr> <chr>     <int>  <dbl>
 1  1880 F     Mary       7065 0.0724
 2  1880 F     Anna       2604 0.0267
 3  1880 F     Emma       2003 0.0205
 4  1880 F     Elizabeth  1939 0.0199
 5  1880 F     Minnie     1746 0.0179
 6  1880 F     Margaret   1578 0.0162
 7  1880 F     Ida        1472 0.0151
 8  1880 F     Alice      1414 0.0145
 9  1880 F     Bertha     1320 0.0135
10  1880 F     Sarah      1288 0.0132
# ℹ 1,138,283 more rows

babynames |> filter(prop > 0.05)

# A tibble: 168 × 5
    year sex   name        n   prop
   <dbl> <chr> <chr>   <int>  <dbl>
 1  1880 F     Mary     7065 0.0724
 2  1880 M     John     9655 0.0815
 3  1880 M     William  9532 0.0805
 4  1880 M     James    5927 0.0501
 5  1881 F     Mary     6919 0.0700
 6  1881 M     John     8769 0.0810
 7  1881 M     William  8524 0.0787
 8  1881 M     James    5441 0.0502
 9  1882 F     Mary     8148 0.0704
10  1882 M     John     9557 0.0783
# ℹ 158 more rows

babynames |> filter(year == max(year))

# A tibble: 32,469 × 5
    year sex   name          n    prop
   <dbl> <chr> <chr>     <int>   <dbl>
 1  2017 F     Emma      19738 0.0105 
 2  2017 F     Olivia    18632 0.00994
 3  2017 F     Ava       15902 0.00848
 4  2017 F     Isabella  15100 0.00805
 5  2017 F     Sophia    14831 0.00791
 6  2017 F     Mia       13437 0.00717
 7  2017 F     Charlotte 12893 0.00688
 8  2017 F     Amelia    11800 0.00629
 9  2017 F     Evelyn    10675 0.00569
10  2017 F     Abigail   10551 0.00563
# ℹ 32,459 more rows

babynames |> filter(n > 20000 | prop > 0.05)

# A tibble: 2,301 × 5
    year sex   name        n   prop
   <dbl> <chr> <chr>   <int>  <dbl>
 1  1880 F     Mary     7065 0.0724
 2  1880 M     John     9655 0.0815
 3  1880 M     William  9532 0.0805
 4  1880 M     James    5927 0.0501
 5  1881 F     Mary     6919 0.0700
 6  1881 M     John     8769 0.0810
 7  1881 M     William  8524 0.0787
 8  1881 M     James    5441 0.0502
 9  1882 F     Mary     8148 0.0704
10  1882 M     John     9557 0.0783
# ℹ 2,291 more rows

babynames |> filter(sex == "F" & name == "Mary")

# A tibble: 138 × 5
    year sex   name      n   prop
   <dbl> <chr> <chr> <int>  <dbl>
 1  1880 F     Mary   7065 0.0724
 2  1881 F     Mary   6919 0.0700
 3  1882 F     Mary   8148 0.0704
 4  1883 F     Mary   8012 0.0667
 5  1884 F     Mary   9217 0.0670
 6  1885 F     Mary   9128 0.0643
 7  1886 F     Mary   9889 0.0643
 8  1887 F     Mary   9888 0.0636
 9  1888 F     Mary  11754 0.0620
10  1889 F     Mary  11648 0.0616
# ℹ 128 more rows

babynames |> filter(sex == "F" & name == "Mary" & prop > 0.05)

# A tibble: 58 × 5
    year sex   name      n   prop
   <dbl> <chr> <chr> <int>  <dbl>
 1  1880 F     Mary   7065 0.0724
 2  1881 F     Mary   6919 0.0700
 3  1882 F     Mary   8148 0.0704
 4  1883 F     Mary   8012 0.0667
 5  1884 F     Mary   9217 0.0670
 6  1885 F     Mary   9128 0.0643
 7  1886 F     Mary   9889 0.0643
 8  1887 F     Mary   9888 0.0636
 9  1888 F     Mary  11754 0.0620
10  1889 F     Mary  11648 0.0616
# ℹ 48 more rows
…
# A tibble: 5 × 5
   year sex   name          n   prop
  <dbl> <chr> <chr>     <int>  <dbl>
1  1880 F     Mary       7065 0.0724
2  1880 F     Anna       2604 0.0267
3  1880 F     Emma       2003 0.0205
4  1880 F     Elizabeth  1939 0.0199
5  1880 F     Minnie     1746 0.0179

Exercise 1 - 4

babynames |> filter(name == "Milo")

# A tibble: 157 × 5
    year sex   name      n     prop
   <dbl> <chr> <chr> <int>    <dbl>
 1  1880 M     Milo     26 0.000220
 2  1881 M     Milo     19 0.000175
 3  1882 M     Milo     27 0.000221
 4  1883 M     Milo     20 0.000178
 5  1884 M     Milo     22 0.000179
 6  1885 M     Milo     21 0.000181
 7  1886 M     Milo     24 0.000202
 8  1887 M     Milo     23 0.000210
 9  1888 M     Milo     20 0.000154
10  1889 M     Milo     17 0.000143
# ℹ 147 more rows

babynames |> filter(year >= 2000)

# A tibble: 591,925 × 5
    year sex   name          n    prop
   <dbl> <chr> <chr>     <int>   <dbl>
 1  2000 F     Emily     25953 0.0130 
 2  2000 F     Hannah    23080 0.0116 
 3  2000 F     Madison   19967 0.0100 
 4  2000 F     Ashley    17997 0.00902
 5  2000 F     Sarah     17697 0.00887
 6  2000 F     Alexis    17629 0.00884
 7  2000 F     Samantha  17266 0.00866
 8  2000 F     Jessica   15709 0.00787
 9  2000 F     Elizabeth 15094 0.00757
10  2000 F     Taylor    15078 0.00756
# ℹ 591,915 more rows

babynames |> filter(name == "Milo" & year >= 2000)

# A tibble: 29 × 5
    year sex   name      n       prop
   <dbl> <chr> <chr> <int>      <dbl>
 1  2000 M     Milo    127 0.0000608 
 2  2001 M     Milo    156 0.0000755 
 3  2002 M     Milo    210 0.000102  
 4  2003 M     Milo    220 0.000105  
 5  2004 M     Milo    236 0.000112  
 6  2005 M     Milo    282 0.000133  
 7  2006 F     Milo      6 0.00000287
 8  2006 M     Milo    336 0.000153  
 9  2007 M     Milo    475 0.000215  
10  2008 F     Milo     11 0.00000529
# ℹ 19 more rows
…
3.1.2

babynames |> arrange(n)

# A tibble: 1,924,665 × 5
    year sex   name          n      prop
   <dbl> <chr> <chr>     <int>     <dbl>
 1  1880 F     Adelle        5 0.0000512
 2  1880 F     Adina         5 0.0000512
 3  1880 F     Adrienne      5 0.0000512
 4  1880 F     Albertine     5 0.0000512
 5  1880 F     Alys          5 0.0000512
 6  1880 F     Ana           5 0.0000512
 7  1880 F     Araminta      5 0.0000512
 8  1880 F     Arthur        5 0.0000512
 9  1880 F     Birtha        5 0.0000512
10  1880 F     Bulah         5 0.0000512
# ℹ 1,924,655 more rows

babynames |> arrange(desc(n))

# A tibble: 1,924,665 × 5
    year sex   name        n   prop
   <dbl> <chr> <chr>   <int>  <dbl>
 1  1947 F     Linda   99686 0.0548
 2  1948 F     Linda   96209 0.0552
 3  1947 M     James   94756 0.0510
 4  1957 M     Michael 92695 0.0424
 5  1947 M     Robert  91642 0.0493
 6  1949 F     Linda   91016 0.0518
 7  1956 M     Michael 90620 0.0423
 8  1958 M     Michael 90520 0.0420
 9  1948 M     James   88588 0.0497
10  1954 M     Michael 88514 0.0428
# ℹ 1,924,655 more rows

Exercises 5 - 6

It seems to organize the names into alphabetical order with a secondary method of organization being year

babynames |> arrange(desc(prop))

# A tibble: 1,924,665 × 5
    year sex   name        n   prop
   <dbl> <chr> <chr>   <int>  <dbl>
 1  1880 M     John     9655 0.0815
 2  1881 M     John     8769 0.0810
 3  1880 M     William  9532 0.0805
 4  1883 M     John     8894 0.0791
 5  1881 M     William  8524 0.0787
 6  1882 M     John     9557 0.0783
 7  1884 M     John     9388 0.0765
 8  1882 M     William  9298 0.0762
 9  1886 M     John     9026 0.0758
10  1885 M     John     8756 0.0755
# ℹ 1,924,655 more rows

babynames |> arrange(name)

# A tibble: 1,924,665 × 5
    year sex   name      n       prop
   <dbl> <chr> <chr> <int>      <dbl>
 1  2007 M     Aaban     5 0.00000226
 2  2009 M     Aaban     6 0.00000283
 3  2010 M     Aaban     9 0.00000439
 4  2011 M     Aaban    11 0.00000542
 5  2012 M     Aaban    11 0.00000543
 6  2013 M     Aaban    14 0.00000694
 7  2014 M     Aaban    16 0.00000783
 8  2015 M     Aaban    15 0.00000736
 9  2016 M     Aaban     9 0.00000446
10  2017 M     Aaban    11 0.0000056 
# ℹ 1,924,655 more rows

3.1.3

babynames |> select(name, n)

# A tibble: 1,924,665 × 2
   name          n
   <chr>     <int>
 1 Mary       7065
 2 Anna       2604
 3 Emma       2003
 4 Elizabeth  1939
 5 Minnie     1746
 6 Margaret   1578
 7 Ida        1472
 8 Alice      1414
 9 Bertha     1320
10 Sarah      1288
# ℹ 1,924,655 more rows

babynames |> select(-sex, -prop)

# A tibble: 1,924,665 × 3
    year name          n
   <dbl> <chr>     <int>
 1  1880 Mary       7065
 2  1880 Anna       2604
 3  1880 Emma       2003
 4  1880 Elizabeth  1939
 5  1880 Minnie     1746
 6  1880 Margaret   1578
 7  1880 Ida        1472
 8  1880 Alice      1414
 9  1880 Bertha     1320
10  1880 Sarah      1288
# ℹ 1,924,655 more rows

babynames |> select(name,, everything())

# A tibble: 1,924,665 × 5
   name       year sex       n   prop
   <chr>     <dbl> <chr> <int>  <dbl>
 1 Mary       1880 F      7065 0.0724
 2 Anna       1880 F      2604 0.0267
 3 Emma       1880 F      2003 0.0205
 4 Elizabeth  1880 F      1939 0.0199
 5 Minnie     1880 F      1746 0.0179
 6 Margaret   1880 F      1578 0.0162
 7 Ida        1880 F      1472 0.0151
 8 Alice      1880 F      1414 0.0145
 9 Bertha     1880 F      1320 0.0135
10 Sarah      1880 F      1288 0.0132
# ℹ 1,924,655 more rows

Exercise 7

babynames |> select(year, name, prop)

# A tibble: 1,924,665 × 3
    year name        prop
   <dbl> <chr>      <dbl>
 1  1880 Mary      0.0724
 2  1880 Anna      0.0267
 3  1880 Emma      0.0205
 4  1880 Elizabeth 0.0199
 5  1880 Minnie    0.0179
 6  1880 Margaret  0.0162
 7  1880 Ida       0.0151
 8  1880 Alice     0.0145
 9  1880 Bertha    0.0135
10  1880 Sarah     0.0132
# ℹ 1,924,655 more rows

babynames |> select(-sex, -n)

# A tibble: 1,924,665 × 3
    year name        prop
   <dbl> <chr>      <dbl>
 1  1880 Mary      0.0724
 2  1880 Anna      0.0267
 3  1880 Emma      0.0205
 4  1880 Elizabeth 0.0199
 5  1880 Minnie    0.0179
 6  1880 Margaret  0.0162
 7  1880 Ida       0.0151
 8  1880 Alice     0.0145
 9  1880 Bertha    0.0135
10  1880 Sarah     0.0132
# ℹ 1,924,655 more rows

3.1.4

babynames |> filter(name == "Matthew")

# A tibble: 212 × 5
    year sex   name        n     prop
   <dbl> <chr> <chr>   <int>    <dbl>
 1  1880 M     Matthew   113 0.000954
 2  1881 M     Matthew    80 0.000739
 3  1882 M     Matthew   109 0.000893
 4  1883 M     Matthew    86 0.000765
 5  1884 M     Matthew   117 0.000953
 6  1885 M     Matthew   111 0.000957
 7  1886 M     Matthew   112 0.000941
 8  1887 M     Matthew   108 0.000988
 9  1888 M     Matthew   114 0.000878
10  1889 M     Matthew   118 0.000991
# ℹ 202 more rows

babynames_matthew <- babynames |> filter(name == "Matthew")

Exercise 8

babynames_milo <- babynames |> filter(name == "Milo")
babynames_milo

# A tibble: 157 × 5
    year sex   name      n     prop
   <dbl> <chr> <chr> <int>    <dbl>
 1  1880 M     Milo     26 0.000220
 2  1881 M     Milo     19 0.000175
 3  1882 M     Milo     27 0.000221
 4  1883 M     Milo     20 0.000178
 5  1884 M     Milo     22 0.000179
 6  1885 M     Milo     21 0.000181
 7  1886 M     Milo     24 0.000202
 8  1887 M     Milo     23 0.000210
 9  1888 M     Milo     20 0.000154
10  1889 M     Milo     17 0.000143
# ℹ 147 more rows

3.1.5

fitness_df <- read_csv("https://raw.githubusercontent.com/highamm/ds234_quarto/main/data_online/higham_fitness_clean.csv",
                       col_types = list(stepgoal = col_factor()))
fitness_df

# A tibble: 1,722 × 9
   Start      active_cals distance flights  steps month weekday dayofyear
   <date>           <dbl>    <dbl>   <dbl>  <dbl> <chr> <chr>       <dbl>
 1 2018-11-28        57.8    0.930       0  1885. Nov   Wed           332
 2 2018-11-29       509.     4.64       18  8953. Nov   Thu           333
 3 2018-11-30       599.     6.05       12 11665  Nov   Fri           334
 4 2018-12-01       661.     6.80        6 12117  Dec   Sat           335
 5 2018-12-02       527.     4.61        1  8925. Dec   Sun           336
 6 2018-12-03       550.     3.96        2  7205  Dec   Mon           337
 7 2018-12-04       670.     6.60        5 12483. Dec   Tue           338
 8 2018-12-05       557.     4.91        6  9258. Dec   Wed           339
 9 2018-12-06       997.     7.50       13 14208  Dec   Thu           340
10 2018-12-07       533.     4.27        8  8269. Dec   Fri           341
# ℹ 1,712 more rows
# ℹ 1 more variable: stepgoal <fct>

fitness_df |> filter(weekday == "Sat" | weekday == "Sun") |>
  arrange(desc(steps))

# A tibble: 492 × 9
   Start      active_cals distance flights  steps month weekday dayofyear
   <date>           <dbl>    <dbl>   <dbl>  <dbl> <chr> <chr>       <dbl>
 1 2023-07-15       2291.    18.0      193 32589. Jul   Sat           196
 2 2019-08-11       1385.    15.8      173 29480. Aug   Sun           223
 3 2019-04-14       1767.    17.9        1 25578  Apr   Sun           104
 4 2018-12-15       1091.    11.2       27 21224. Dec   Sat           349
 5 2022-05-29       1291.    11.8      103 20853  May   Sun           149
 6 2019-02-10       1392.    12.8        5 20700. Feb   Sun            41
 7 2020-08-15          0      9.06      90 19065  Aug   Sat           228
 8 2021-09-04       1622.    10.1      132 18470  Sep   Sat           247
 9 2021-05-23       1162.     9.41      41 16625  May   Sun           143
10 2019-07-07        871.     9.95       4 16484. Jul   Sun           188
# ℹ 482 more rows
# ℹ 1 more variable: stepgoal <fct>

fitness_df |> filter(weekday == "Sat" | weekday == "Sun")

# A tibble: 492 × 9
   Start      active_cals distance flights  steps month weekday dayofyear
   <date>           <dbl>    <dbl>   <dbl>  <dbl> <chr> <chr>       <dbl>
 1 2018-12-01        661.     6.80       6 12117  Dec   Sat           335
 2 2018-12-02        527.     4.61       1  8925. Dec   Sun           336
 3 2018-12-08        775.     6.46       0  8834. Dec   Sat           342
 4 2018-12-09        341.     2.81       0  5265  Dec   Sun           343
 5 2018-12-15       1091.    11.2       27 21224. Dec   Sat           349
 6 2018-12-16       1029.     8.84      79 16376  Dec   Sun           350
 7 2018-12-22        435.     2.23       8  4204. Dec   Sat           356
 8 2018-12-23        353.     2.40       8  4286  Dec   Sun           357
 9 2018-12-29        538.     3.49       6  6570. Dec   Sat           363
10 2018-12-30        317.     1.21       4  2285. Dec   Sun           364
# ℹ 482 more rows
# ℹ 1 more variable: stepgoal <fct>

filter(fitness_df, weekday == "Sat" | weekday == "Sun")

# A tibble: 492 × 9
   Start      active_cals distance flights  steps month weekday dayofyear
   <date>           <dbl>    <dbl>   <dbl>  <dbl> <chr> <chr>       <dbl>
 1 2018-12-01        661.     6.80       6 12117  Dec   Sat           335
 2 2018-12-02        527.     4.61       1  8925. Dec   Sun           336
 3 2018-12-08        775.     6.46       0  8834. Dec   Sat           342
 4 2018-12-09        341.     2.81       0  5265  Dec   Sun           343
 5 2018-12-15       1091.    11.2       27 21224. Dec   Sat           349
 6 2018-12-16       1029.     8.84      79 16376  Dec   Sun           350
 7 2018-12-22        435.     2.23       8  4204. Dec   Sat           356
 8 2018-12-23        353.     2.40       8  4286  Dec   Sun           357
 9 2018-12-29        538.     3.49       6  6570. Dec   Sat           363
10 2018-12-30        317.     1.21       4  2285. Dec   Sun           364
# ℹ 482 more rows
# ℹ 1 more variable: stepgoal <fct>

filter(fitness_df, weekday == "Sat" | weekday == "Sun") |> arrange(desc(steps))

# A tibble: 492 × 9
   Start      active_cals distance flights  steps month weekday dayofyear
   <date>           <dbl>    <dbl>   <dbl>  <dbl> <chr> <chr>       <dbl>
 1 2023-07-15       2291.    18.0      193 32589. Jul   Sat           196
 2 2019-08-11       1385.    15.8      173 29480. Aug   Sun           223
 3 2019-04-14       1767.    17.9        1 25578  Apr   Sun           104
 4 2018-12-15       1091.    11.2       27 21224. Dec   Sat           349
 5 2022-05-29       1291.    11.8      103 20853  May   Sun           149
 6 2019-02-10       1392.    12.8        5 20700. Feb   Sun            41
 7 2020-08-15          0      9.06      90 19065  Aug   Sat           228
 8 2021-09-04       1622.    10.1      132 18470  Sep   Sat           247
 9 2021-05-23       1162.     9.41      41 16625  May   Sun           143
10 2019-07-07        871.     9.95       4 16484. Jul   Sun           188
# ℹ 482 more rows
# ℹ 1 more variable: stepgoal <fct>

arrange(filter(fitness_df, weekday == "Sat" | weekday == "Sun"), desc(steps))

# A tibble: 492 × 9
   Start      active_cals distance flights  steps month weekday dayofyear
   <date>           <dbl>    <dbl>   <dbl>  <dbl> <chr> <chr>       <dbl>
 1 2023-07-15       2291.    18.0      193 32589. Jul   Sat           196
 2 2019-08-11       1385.    15.8      173 29480. Aug   Sun           223
 3 2019-04-14       1767.    17.9        1 25578  Apr   Sun           104
 4 2018-12-15       1091.    11.2       27 21224. Dec   Sat           349
 5 2022-05-29       1291.    11.8      103 20853  May   Sun           149
 6 2019-02-10       1392.    12.8        5 20700. Feb   Sun            41
 7 2020-08-15          0      9.06      90 19065  Aug   Sat           228
 8 2021-09-04       1622.    10.1      132 18470  Sep   Sat           247
 9 2021-05-23       1162.     9.41      41 16625  May   Sun           143
10 2019-07-07        871.     9.95       4 16484. Jul   Sun           188
# ℹ 482 more rows
# ℹ 1 more variable: stepgoal <fct>

Exercise 9

fitness_df |> filter(active_cals > 50)

# A tibble: 1,690 × 9
   Start      active_cals distance flights  steps month weekday dayofyear
   <date>           <dbl>    <dbl>   <dbl>  <dbl> <chr> <chr>       <dbl>
 1 2018-11-28        57.8    0.930       0  1885. Nov   Wed           332
 2 2018-11-29       509.     4.64       18  8953. Nov   Thu           333
 3 2018-11-30       599.     6.05       12 11665  Nov   Fri           334
 4 2018-12-01       661.     6.80        6 12117  Dec   Sat           335
 5 2018-12-02       527.     4.61        1  8925. Dec   Sun           336
 6 2018-12-03       550.     3.96        2  7205  Dec   Mon           337
 7 2018-12-04       670.     6.60        5 12483. Dec   Tue           338
 8 2018-12-05       557.     4.91        6  9258. Dec   Wed           339
 9 2018-12-06       997.     7.50       13 14208  Dec   Thu           340
10 2018-12-07       533.     4.27        8  8269. Dec   Fri           341
# ℹ 1,680 more rows
# ℹ 1 more variable: stepgoal <fct>
…
