06-codingquiz
…
path <- "https://raw.githubusercontent.com/highamm/ds234_quarto/main/data_online/"
field_df <- read_csv(paste0(path, "field_study.csv"))

Rows: 500 Columns: 6
── Column specification ────────────────────────────────────────────────────────
Delimiter: ","
dbl (6): row_num, year, bio, psych, stats, cs

ℹ Use `spec()` to retrieve the full column specification for this data.
ℹ Specify the column types or set `show_col_types = FALSE` to quiet this message.

field_df

# A tibble: 500 × 6
   row_num  year   bio psych stats    cs
     <dbl> <dbl> <dbl> <dbl> <dbl> <dbl>
 1       1  2010 55100 48777 86217 76869
 2       2  2010 61352 62706 82491 83806
 3       3  2010 55430 54988 72317 69424
 4       4  2010 54214 56814 89710 75960
 5       5  2010 55031 61988 78143 77065
 6       6  2010 63795 65456 99569 72506
 7       7  2010 63157 56151 81887 80914
 8       8  2010 60623 59877 79992 73181
 9       9  2010 56983 51530 86019 88236
10      10  2010 53422 53267 84006 78640
# ℹ 490 more rows
…
Question 2

field2019_df <- read_csv(paste0(path, "field_study2.csv"))

Rows: 200 Columns: 1
── Column specification ────────────────────────────────────────────────────────
Delimiter: ","
chr (1): variable

ℹ Use `spec()` to retrieve the full column specification for this data.
ℹ Specify the column types or set `show_col_types = FALSE` to quiet this message.

field2019_df

# A tibble: 200 × 1
   variable         
   <chr>            
 1 2019bio___$58,136
 2 2019bio___$52,196
 3 2019bio___$59,022
 4 2019bio___$61,181
 5 2019bio___$57,910
 6 2019bio___$67,575
 7 2019bio___$64,749
 8 2019bio___$61,871
 9 2019bio___$64,254
10 2019bio___$65,742
# ℹ 190 more rows
…
late_df_q3 <- late_df |> mutate(late_or_not = if_else(late_or_not == "not late",
                                        true = "0",
                                        false = "1")) |>
  mutate(late_or_not = as.double(late_or_not)) |>
  group_by(student_id, semester) |>
  summarise(total_late = sum(late_or_not))

`summarise()` has grouped output by 'student_id'. You can override using the
`.groups` argument.

late_df_q3

# A tibble: 40 × 3
# Groups:   student_id [20]
   student_id semester total_late
        <dbl> <chr>         <dbl>
 1          1 Fall              1
 2          1 Spring            5
 3          2 Fall              3
 4          2 Spring            2
 5          3 Fall              2
 6          3 Spring            3
 7          4 Fall              0
 8          4 Spring            4
 9          5 Fall              3
10          5 Spring            0
# ℹ 30 more rows
…
stat113 <- read_csv(here("data/stat113.csv"))

Rows: 397 Columns: 12

── Column specification ────────────────────────────────────────────────────────
Delimiter: ","
chr (5): Year, Sex, Sport, Award, SocialMedia
dbl (7): Hgt, Wgt, Haircut, GPA, Exercise, TV, Pulse

ℹ Use `spec()` to retrieve the full column specification for this data.
ℹ Specify the column types or set `show_col_types = FALSE` to quiet this message.

stat113

# A tibble: 397 × 12
   Year      Sex     Hgt   Wgt Haircut   GPA Exercise Sport    TV Award   Pulse
   <chr>     <chr> <dbl> <dbl>   <dbl> <dbl>    <dbl> <chr> <dbl> <chr>   <dbl>
 1 Sophomore M        66   155       0  2.9        15 Yes       8 Olympic    72
 2 FirstYear F        69   170      17  3.87       14 Yes      12 Olympic    51
 3 FirstYear F        64   130      40  3.3         5 No        5 Olympic    68
 4 FirstYear M        68   157      35  3.21       10 Yes      15 Olympic    54
 5 FirstYear M        72   175      20  3.1         2 No        5 Nobel      NA
 6 Junior    F        62   150      50  3.3         8 Yes       5 Olympic    86
 7 FirstYear M        70   121      12  3.9         3 Yes      20 Nobel      88
 8 FirstYear M        71   180      20  3.84        7 No       15 Nobel     100
 9 FirstYear M        72   165      10  3.25        3 No       30 Nobel      62
10 FirstYear F        66   150      40  3.75        3 <NA>      6 Nobel      84
# ℹ 387 more rows
# ℹ 1 more variable: SocialMedia <chr>
…
