08-forcats
…
Rows: 947 Columns: 20
── Column specification ────────────────────────────────────────────────────────
Delimiter: ","
chr  (5): Name, Type 1, Type 2, id, identifier
dbl (14): #, Total, HP, Attack, Defense, Sp. Atk, Sp. Def, Speed, Generation...
lgl  (1): Legendary

ℹ Use `spec()` to retrieve the full column specification for this data.
ℹ Specify the column types or set `show_col_types = FALSE` to quiet this message.

pokemon_df

# A tibble: 947 × 21
     `#` Name   `Type 1` `Type 2` Total    HP Attack Defense `Sp. Atk` `Sp. Def`
   <dbl> <chr>  <chr>    <chr>    <dbl> <dbl>  <dbl>   <dbl>     <dbl>     <dbl>
 1     1 Bulba… Grass    Poison     318    45     49      49        65        65
 2     2 Ivysa… Grass    Poison     405    60     62      63        80        80
 3     3 Venus… Grass    Poison     525    80     82      83       100       100
 4     3 Venus… Grass    Poison     525    80     82      83       100       100
 5     4 Charm… Fire     <NA>       309    39     52      43        60        50
 6     5 Charm… Fire     <NA>       405    58     64      58        80        65
 7     6 Chari… Fire     Flying     534    78     84      78       109        85
 8     6 Chari… Fire     Flying     534    78     84      78       109        85
 9     6 Chari… Fire     Flying     534    78     84      78       109        85
10     7 Squir… Water    <NA>       314    44     48      65        50        64
# ℹ 937 more rows
# ℹ 11 more variables: Speed <dbl>, Generation <dbl>, Legendary <lgl>,
#   id <chr>, identifier <chr>, height <dbl>, weight <dbl>,
#   base_experience <dbl>, order <dbl>, is_default <dbl>, Generation_cat <fct>
…
pokemon_long <- pokemon_df |> pivot_longer(c(`Type 1`, `Type 2`),
                            names_to = "Number",
                            values_to = "Type")
pokemon_long |>
  mutate(new_type = fct_collapse(Type, Coolest = c("Ice", "Dark"),
                                 Least_Cool = c("Fire", "Fighting", "Poison"))) |>
  select(new_type, Type, everything())

# A tibble: 1,894 × 22
   new_type   Type     `#` Name   Total    HP Attack Defense `Sp. Atk` `Sp. Def`
   <fct>      <chr>  <dbl> <chr>  <dbl> <dbl>  <dbl>   <dbl>     <dbl>     <dbl>
 1 Grass      Grass      1 Bulba…   318    45     49      49        65        65
 2 Least_Cool Poison     1 Bulba…   318    45     49      49        65        65
 3 Grass      Grass      2 Ivysa…   405    60     62      63        80        80
 4 Least_Cool Poison     2 Ivysa…   405    60     62      63        80        80
 5 Grass      Grass      3 Venus…   525    80     82      83       100       100
 6 Least_Cool Poison     3 Venus…   525    80     82      83       100       100
 7 Grass      Grass      3 Venus…   525    80     82      83       100       100
 8 Least_Cool Poison     3 Venus…   525    80     82      83       100       100
 9 Least_Cool Fire       4 Charm…   309    39     52      43        60        50
10 <NA>       <NA>       4 Charm…   309    39     52      43        60        50
# ℹ 1,884 more rows
# ℹ 12 more variables: Speed <dbl>, Generation <dbl>, Legendary <lgl>,
#   id <chr>, identifier <chr>, height <dbl>, weight <dbl>,
#   base_experience <dbl>, order <dbl>, is_default <dbl>, Generation_cat <fct>,
#   Number <chr>
…
