12-lubridate
…
12.2.1

stocks_long |> mutate(year_stock = year(start_date))

# A tibble: 10,444 × 4
   start_date Stock_Type Price year_stock
   <date>     <fct>      <dbl>      <dbl>
 1 2011-01-03 Apple       9.93       2011
 2 2011-01-03 Nintendo    7.34       2011
 3 2011-01-03 Chipotle    4.47       2011
 4 2011-01-03 S & P 500  98.7        2011
 5 2011-01-04 Apple       9.98       2011
 6 2011-01-04 Nintendo    7.10       2011
 7 2011-01-04 Chipotle    4.45       2011
 8 2011-01-04 S & P 500  98.6        2011
 9 2011-01-05 Apple      10.1        2011
10 2011-01-05 Nintendo    6.92       2011
# ℹ 10,434 more rows

stocks_long |> mutate(month_stock = month(start_date))

# A tibble: 10,444 × 4
   start_date Stock_Type Price month_stock
   <date>     <fct>      <dbl>       <dbl>
 1 2011-01-03 Apple       9.93           1
 2 2011-01-03 Nintendo    7.34           1
 3 2011-01-03 Chipotle    4.47           1
 4 2011-01-03 S & P 500  98.7            1
 5 2011-01-04 Apple       9.98           1
 6 2011-01-04 Nintendo    7.10           1
 7 2011-01-04 Chipotle    4.45           1
 8 2011-01-04 S & P 500  98.6            1
 9 2011-01-05 Apple      10.1            1
10 2011-01-05 Nintendo    6.92           1
# ℹ 10,434 more rows

stocks_long |> mutate(day_stock = mday(start_date))

# A tibble: 10,444 × 4
   start_date Stock_Type Price day_stock
   <date>     <fct>      <dbl>     <int>
 1 2011-01-03 Apple       9.93         3
 2 2011-01-03 Nintendo    7.34         3
 3 2011-01-03 Chipotle    4.47         3
 4 2011-01-03 S & P 500  98.7          3
 5 2011-01-04 Apple       9.98         4
 6 2011-01-04 Nintendo    7.10         4
 7 2011-01-04 Chipotle    4.45         4
 8 2011-01-04 S & P 500  98.6          4
 9 2011-01-05 Apple      10.1          5
10 2011-01-05 Nintendo    6.92         5
# ℹ 10,434 more rows

12.2.2

test <- mdy("November 4, 2020")
yday(test)

[1] 309

stocks_long |> mutate(day_in_year = yday(start_date))

# A tibble: 10,444 × 4
   start_date Stock_Type Price day_in_year
   <date>     <fct>      <dbl>       <dbl>
 1 2011-01-03 Apple       9.93           3
 2 2011-01-03 Nintendo    7.34           3
 3 2011-01-03 Chipotle    4.47           3
 4 2011-01-03 S & P 500  98.7            3
 5 2011-01-04 Apple       9.98           4
 6 2011-01-04 Nintendo    7.10           4
 7 2011-01-04 Chipotle    4.45           4
 8 2011-01-04 S & P 500  98.6            4
 9 2011-01-05 Apple      10.1            5
10 2011-01-05 Nintendo    6.92           5
# ℹ 10,434 more rows

stocks_long |> mutate(day_of_week = wday(start_date))

# A tibble: 10,444 × 4
   start_date Stock_Type Price day_of_week
   <date>     <fct>      <dbl>       <dbl>
 1 2011-01-03 Apple       9.93           2
 2 2011-01-03 Nintendo    7.34           2
 3 2011-01-03 Chipotle    4.47           2
 4 2011-01-03 S & P 500  98.7            2
 5 2011-01-04 Apple       9.98           3
 6 2011-01-04 Nintendo    7.10           3
 7 2011-01-04 Chipotle    4.45           3
 8 2011-01-04 S & P 500  98.6            3
 9 2011-01-05 Apple      10.1            4
10 2011-01-05 Nintendo    6.92           4
# ℹ 10,434 more rows

stocks_long |> mutate(day_of_week = wday(start_date,
                                          label = TRUE, abbr = FALSE))

# A tibble: 10,444 × 4
   start_date Stock_Type Price day_of_week
   <date>     <fct>      <dbl> <ord>      
 1 2011-01-03 Apple       9.93 Monday     
 2 2011-01-03 Nintendo    7.34 Monday     
 3 2011-01-03 Chipotle    4.47 Monday     
 4 2011-01-03 S & P 500  98.7  Monday     
 5 2011-01-04 Apple       9.98 Tuesday    
 6 2011-01-04 Nintendo    7.10 Tuesday    
 7 2011-01-04 Chipotle    4.45 Tuesday    
 8 2011-01-04 S & P 500  98.6  Tuesday    
 9 2011-01-05 Apple      10.1  Wednesday  
10 2011-01-05 Nintendo    6.92 Wednesday  
# ℹ 10,434 more rows

Exercise 3

stocks_long |> mutate(month_stock = month(start_date,
                                          label = TRUE, abbr = FALSE))

# A tibble: 10,444 × 4
   start_date Stock_Type Price month_stock
   <date>     <fct>      <dbl> <ord>      
 1 2011-01-03 Apple       9.93 January    
 2 2011-01-03 Nintendo    7.34 January    
 3 2011-01-03 Chipotle    4.47 January    
 4 2011-01-03 S & P 500  98.7  January    
 5 2011-01-04 Apple       9.98 January    
 6 2011-01-04 Nintendo    7.10 January    
 7 2011-01-04 Chipotle    4.45 January    
 8 2011-01-04 S & P 500  98.6  January    
 9 2011-01-05 Apple      10.1  January    
10 2011-01-05 Nintendo    6.92 January    
# ℹ 10,434 more rows

stocks_long |> mutate(month_stock = month(start_date,
                                          label = TRUE, abbr = TRUE))

# A tibble: 10,444 × 4
   start_date Stock_Type Price month_stock
   <date>     <fct>      <dbl> <ord>      
 1 2011-01-03 Apple       9.93 Jan        
 2 2011-01-03 Nintendo    7.34 Jan        
 3 2011-01-03 Chipotle    4.47 Jan        
 4 2011-01-03 S & P 500  98.7  Jan        
 5 2011-01-04 Apple       9.98 Jan        
 6 2011-01-04 Nintendo    7.10 Jan        
 7 2011-01-04 Chipotle    4.45 Jan        
 8 2011-01-04 S & P 500  98.6  Jan        
 9 2011-01-05 Apple      10.1  Jan        
10 2011-01-05 Nintendo    6.92 Jan        
# ℹ 10,434 more rows
