13-stringr
…
beyonce$line[1:4]

[1] "If I ain't got nothing, I got you"                       
[2] "If I ain't got something, I don't give a damn"           
[3] "'Cause I got it with you"                                
[4] "I don't know much about algebra, but I know 1+1 equals 2"

library(tidytext)
beyonce_unnest <- beyonce |> unnest_tokens(output = "word", input = "line")
beyonce_unnest

# A tibble: 164,740 × 6
   song_id song_name artist_id artist_name song_line word   
     <dbl> <chr>         <dbl> <chr>           <dbl> <chr>  
 1   50396 1+1             498 Beyoncé             1 if     
 2   50396 1+1             498 Beyoncé             1 i      
 3   50396 1+1             498 Beyoncé             1 ain't  
 4   50396 1+1             498 Beyoncé             1 got    
 5   50396 1+1             498 Beyoncé             1 nothing
 6   50396 1+1             498 Beyoncé             1 i      
 7   50396 1+1             498 Beyoncé             1 got    
 8   50396 1+1             498 Beyoncé             1 you    
 9   50396 1+1             498 Beyoncé             2 if     
10   50396 1+1             498 Beyoncé             2 i      
# ℹ 164,730 more rows

beyonce_unnest <- beyonce_unnest |> mutate(word = str_to_lower(word))

beyonce_unnest |> group_by(word) |>
  summarise(n = n()) |>
  arrange(desc(n))

# A tibble: 6,469 × 2
   word      n
   <chr> <int>
 1 you    7693
 2 i      6669
 3 the    4719
 4 me     3774
 5 to     3070
 6 it     2999
 7 a      2798
 8 my     2676
 9 and    2385
10 on     2344
# ℹ 6,459 more rows
…
beyonce_stop <- anti_join(beyonce_unnest, stop_words, by = join_by(word == word))

beyonce_sum <- beyonce_stop |> group_by(word) |>
  summarise(n = n()) |>
  arrange(desc(n)) |>
  print(n = 25)

# A tibble: 5,937 × 2
   word        n
   <chr>   <int>
 1 love     1362
 2 baby     1024
 3 girl      592
 4 wanna     564
 5 hey       499
 6 boy       494
 7 yeah      491
 8 feel      488
 9 time      452
10 uh        408
11 halo      383
12 check     366
13 tonight   342
14 girls     341
15 ya        327
16 run       325
17 crazy     308
18 world     301
19 body      287
20 ooh       281
21 ladies    269
22 top       241
23 gotta     240
24 beyoncé   238
25 night     213
# ℹ 5,912 more rows

beyonce_sum

# A tibble: 5,937 × 2
   word      n
   <chr> <int>
 1 love   1362
 2 baby   1024
 3 girl    592
 4 wanna   564
 5 hey     499
 6 boy     494
 7 yeah    491
 8 feel    488
 9 time    452
10 uh      408
# ℹ 5,927 more rows

Exercise 1

missed_stops <- tibble(word = c("uh", "ya", "ooh", "yeah", "gotta"))

beyonce_sum_e1 <- anti_join(beyonce_sum, missed_stops, by = join_by(word == word))
beyonce_sum_e1

# A tibble: 5,932 × 2
   word      n
   <chr> <int>
 1 love   1362
 2 baby   1024
 3 girl    592
 4 wanna   564
 5 hey     499
 6 boy     494
 7 feel    488
 8 time    452
 9 halo    383
10 check   366
# ℹ 5,922 more rows
…
