Project_1
…
    Author

             Milo Coolman 

All work presented is my own, and I have followed all rules for collaboration. I have not discussed this project with anyone outside of students currently enrolled in this course, and I have listed any such students at the top of my project. If I used any AI, StackExchange, etc. on this assignment, I have clearly stated both (1) what my search prompt was and (2) what I used from the AI answer. - Milo Coolman

Question 1

slumajors_cs_stat_math <- slumajors_df |> filter(major == "Mathematics" |
                                                   major == "Computer Science" |
                                                   major == "Statistics") |>
  filter(year >= 2000)
slumajors_cs_stat_math

# A tibble: 69 × 4
   major             year n_majors n_graduates
   <chr>            <dbl>    <dbl>       <dbl>
 1 Computer Science  2000        2         425
 2 Computer Science  2001        2         400
 3 Computer Science  2002        2         408
 4 Computer Science  2003        3         452
 5 Computer Science  2004        3         510
 6 Computer Science  2005        3         434
 7 Computer Science  2006        9         510
 8 Computer Science  2007       10         500
 9 Computer Science  2008        4         500
10 Computer Science  2009        8         444
# ℹ 59 more rows
…
Question 2-3

slumajors_mcss <- slumajors_df |> filter(major == "Mathematics" |
           major == "Statistics" |
           major == "Computer Science" |
           major == "Economics/Math (BA)" |
           major == "Economics/Math (BS)") |>
  group_by(year) |>
  mutate(n_total_mccs = sum(n_majors))
slumajors_mcss

# A tibble: 365 × 5
# Groups:   year [73]
   major             year n_majors n_graduates n_total_mccs
   <chr>            <dbl>    <dbl>       <dbl>        <dbl>
 1 Computer Science  1950        0         296           18
 2 Computer Science  1951        0         304           19
 3 Computer Science  1952        0         315           13
 4 Computer Science  1953        0         258           14
 5 Computer Science  1954        0         317           13
 6 Computer Science  1955        0         239           16
 7 Computer Science  1956        0         247           21
 8 Computer Science  1957        0         269           29
 9 Computer Science  1958        0         272           17
10 Computer Science  1959        0         288           19
# ℹ 355 more rows
…
